How to create unigrams, bigrams and n-grams of App Reviews · Programming with R
…
As you can see above, unnest_tokens() is the function that’ll help us in this tokenization process. Since it supports %>% pipe operator, the first argument of the function is a dataframe or tibble, the second argument output is the name of the output (new) column where the tokenized words are going to be put in. The third column input is where the input text is fed in.

Now, this is what unigrams are for this Medium iOS App Reviews. As with many other data science projects, Data like this is not useful unless it’s visualized in a way to look at insights.

reviews %>% 
  unnest_tokens(output = word, input = txt) %>% 
  count(word, sort = TRUE) 

## # A tibble: 444 x 2
##    word         n
##    <chr>    <int>
##  1 the         45
##  2 i           35
##  3 and         34
##  4 of          27
##  5 to          27
##  6 a           18
##  7 it          14
##  8 medium      14
##  9 this        13
## 10 articles    12
## # … with 434 more rows

Roughly, looking at the most frequently appeared unigram we end up with the,i,and and this is one of those places where we need to remove stopwords

Stopword Removal

Fortunately, tidytext helps us in removing stopwords by having a dataframe of stopwords from multiple lexicons. With that, we can use anti_join for picking the words (that are present in the left df (reviews) but not present in the right df (stop_words)).

reviews %>% 
  unnest_tokens(output = word, input = txt) %>% 
  anti_join(stop_words) %>% 
  count(word, sort = TRUE) 

## Joining, by = "word"

## # A tibble: 280 x 2
##    word         n
##    <chr>    <int>
##  1 medium      14
##  2 articles    12
##  3 app          9
##  4 reading      9
##  5 content      6
##  6 love         5
##  7 read         5
##  8 article      4
##  9 enjoy        4
## 10 i’ve         4
## # … with 270 more rows
…
